<?xml version="1.0" standalone="no"?>
<!DOCTYPE svg PUBLIC "-//W3C//DTD SVG 1.1//EN" "http://www.w3.org/Graphics/SVG/1.1/DTD/svg11.dtd">
<svg xmlns="http://www.w3.org/2000/svg">
<metadata>Copyright (C) 2017 by original authors @ fontello.com</metadata>
<defs>
<font id="fontello" horiz-adv-x="1000" >
<font-face font-family="fontello" font-weight="400" font-stretch="normal" units-per-em="1000" ascent="850" descent="-150" />
<missing-glyph horiz-adv-x="1000" />
<glyph glyph-name="shuffle" unicode="&#xe800;" d="M754 516q-54 0-105-32t-80-66-83-104q-48-62-75-94t-78-77-107-66-122-21l-104 0 0 140 104 0q54 0 106 32t81 66 83 104q62 82 101 126t116 88 163 44l36 0 0 120 210-180-210-180 0 100-36 0z m-484-88q-74 78-166 78l-104 0 0 140 104 0q140 0 254-108-14-16-37-45t-27-33q-8-12-24-32z m520-242l0 100 210-180-210-180 0 120-36 0q-140 0-260 116 46 58 72 92 0 2 6 9t8 11q84-88 174-88l36 0z" horiz-adv-x="1000" />

<glyph glyph-name="list-add" unicode="&#xe801;" d="M350 400q22 0 36-15t14-35-15-35-35-15l-300 0q-20 0-35 15t-15 35 14 35 36 15l300 0z m0-200q22 0 36-15t14-35-15-35-35-15l-300 0q-20 0-35 15t-15 35 14 35 36 15l300 0z m620 200q30 0 30-50t-30-50l-170 0 0-170q0-30-50-30t-50 30l0 170-164 0q-30 0-30 50t30 50l164 0 0 170q0 30 50 30t50-30l0-170 170 0z m-620 200q22 0 36-15t14-35-15-35-35-15l-300 0q-20 0-35 15t-15 35 14 35 36 15l300 0z" horiz-adv-x="1000" />

<glyph glyph-name="to-end" unicode="&#xe802;" d="M412 374q14-10 14-24 0-12-14-22l-362-228q-22-14-36-5t-14 35l0 442q0 26 14 35t36-5z m114 268q74 0 74-58l0-466q0-58-74-58-76 0-76 58l0 466q0 58 76 58z" horiz-adv-x="600" />

<glyph glyph-name="pencil" unicode="&#xe803;" d="M718 680q32-32 47-64t15-48l0-16-252-252-290-288-238-52 50 240 290 288 252 252q54 12 126-60z m-494-640l24 24q-2 44-52 94-22 22-45 35t-35 13l-14 2-22-24-18-80q28-16 46-34 24-24 36-48z" horiz-adv-x="780" />
</font>
</defs>
</svg>